// Jest Snapshot v1, https://goo.gl/fbAQLP

exports[`BasicStyle renders html that matches its snapshot 1`] = `"<blockquote class="fm-conversation fm-conversation-style-basic"><div class="messages-container"><div class="message-collection"><p class="user-name"><strong>User 1</strong></p><p class="message">Test message one</p><br/></div><div class="message-collection"><p class="user-name"><strong>User 2</strong></p><p class="message">Test message two</p><p class="message">Test message three</p><br/></div></div></blockquote>"`;

exports[`DiscordantStyle renders html that matches its snapshot 1`] = `"<blockquote class="fm-conversation fm-conversation-style-discordant"><div class="messages-container"><div class="message-collection-outer"><div class="profile-image bg-hsl hue205 sat80 lit90" aria-hidden="true"></div><div class="message-collection"><p class="user-name fg-hsl hue0 sat0 lit100"><strong>User 1</strong></p><p class="message">Test message one</p><br/></div></div><div class="message-collection-outer"><div class="profile-image bg-hsl hue205 sat80 lit90" aria-hidden="true"></div><div class="message-collection"><p class="user-name fg-hsl hue0 sat0 lit100"><strong>User 2</strong></p><p class="message">Test message two</p><p class="message">Test message three</p><br/></div></div></div></blockquote>"`;

exports[`SmsStyle renders html that matches its snapshot 1`] = `"<blockquote class="fm-conversation fm-conversation-style-sms"><div class="messages-container bg-hsl hue0 sat0 lit100"><div class="message-collection  fg-hsl hue0 sat0 lit10"><p class="user-name"><strong>User 1</strong></p><p class="message bg-hsl hue0 sat0 lit90">Test message one</p><br/></div><div class="message-collection  fg-hsl hue0 sat0 lit10"><p class="user-name"><strong>User 2</strong></p><p class="message bg-hsl hue0 sat0 lit90">Test message two</p><p class="message bg-hsl hue0 sat0 lit90">Test message three</p><br/></div></div></blockquote>"`;
