{
  "style": "sms",
  "settings": {},
  "users": [{
    "name": "adora",
    "displayName": "Dearheart",
    "settingValues": {
      "primary": true
    }
  }, {
    "name": "moist",
    "displayName": "Von Lipwig",
    "settingValues": {}
  }]
}